(0.03, 0.02) -> 67.00
(0.03, 0.06) -> 66.47
(0.03, 0.25) -> 66.82
(0.03, 1.00) -> 66.86
(0.03, 4.00) -> 64.98
(0.03, 16.02) -> 60.29
(0.03, 64.07) -> 54.52
(0.03, 256.28) -> 52.11
(0.03, 1025.10) -> 51.10
(0.03, 4100.41) -> 50.86
(0.12, 0.02) -> 67.34
(0.12, 0.06) -> 68.27
(0.12, 0.25) -> 68.72
(0.12, 1.00) -> 68.00
(0.12, 4.00) -> 66.46
(0.12, 16.02) -> 65.77
(0.12, 64.07) -> 59.56
(0.12, 256.28) -> 55.19
(0.12, 1025.10) -> 52.44
(0.12, 4100.41) -> 51.31
(0.50, 0.02) -> 69.80
(0.50, 0.06) -> 70.45
(0.50, 0.25) -> 70.11
(0.50, 1.00) -> 69.00
(0.50, 4.00) -> 67.92
(0.50, 16.02) -> 66.34
(0.50, 64.07) -> 63.86
(0.50, 256.28) -> 59.01
(0.50, 1025.10) -> 56.52
(0.50, 4100.41) -> 55.10
(2.00, 0.02) -> 71.97
(2.00, 0.06) -> 71.54
(2.00, 0.25) -> 70.79
(2.00, 1.00) -> 70.01
(2.00, 4.00) -> 68.73
(2.00, 16.02) -> 66.49
(2.00, 64.07) -> 64.46
(2.00, 256.28) -> 60.37
(2.00, 1025.10) -> 57.71
(2.00, 4100.41) -> 56.13
(8.00, 0.02) -> 72.09
(8.00, 0.06) -> 71.61
(8.00, 0.25) -> 70.16
(8.00, 1.00) -> 69.66
(8.00, 4.00) -> 68.15
(8.00, 16.02) -> 66.21
(8.00, 64.07) -> 63.55
(8.00, 256.28) -> 60.07
(8.00, 1025.10) -> 57.36
(8.00, 4100.41) -> 56.15
(32.00, 0.02) -> 72.31
(32.00, 0.06) -> 71.24
(32.00, 0.25) -> 70.15
(32.00, 1.00) -> 69.33
(32.00, 4.00) -> 67.60
(32.00, 16.02) -> 65.56
(32.00, 64.07) -> 63.10
(32.00, 256.28) -> 60.57
(32.00, 1025.10) -> 57.48
(32.00, 4100.41) -> 56.10
(128.00, 0.02) -> 72.27
(128.00, 0.06) -> 71.09
(128.00, 0.25) -> 70.28
(128.00, 1.00) -> 69.32
(128.00, 4.00) -> 67.09
(128.00, 16.02) -> 64.68
(128.00, 64.07) -> 62.73
(128.00, 256.28) -> 60.22
(128.00, 1025.10) -> 57.68
(128.00, 4100.41) -> 56.03
(512.00, 0.02) -> 72.24
(512.00, 0.06) -> 70.84
(512.00, 0.25) -> 69.85
(512.00, 1.00) -> 69.07
(512.00, 4.00) -> 66.89
(512.00, 16.02) -> 64.18
(512.00, 64.07) -> 62.52
(512.00, 256.28) -> 60.04
(512.00, 1025.10) -> 57.98
(512.00, 4100.41) -> 55.68
(2048.00, 0.02) -> 71.88
(2048.00, 0.06) -> 70.43
(2048.00, 0.25) -> 69.80
(2048.00, 1.00) -> 68.33
(2048.00, 4.00) -> 66.59
(2048.00, 16.02) -> 64.16
(2048.00, 64.07) -> 62.32
(2048.00, 256.28) -> 60.62
(2048.00, 1025.10) -> 58.19
(2048.00, 4100.41) -> 55.83
(8192.00, 0.02) -> 71.73
(8192.00, 0.06) -> 70.33
(8192.00, 0.25) -> 69.30
(8192.00, 1.00) -> 67.72
(8192.00, 4.00) -> 65.99
(8192.00, 16.02) -> 64.03
(8192.00, 64.07) -> 61.15
(8192.00, 256.28) -> 60.46
(8192.00, 1025.10) -> 57.98
(8192.00, 4100.41) -> 55.49
(32768.00, 0.02) -> 71.28
(32768.00, 0.06) -> 69.83
(32768.00, 0.25) -> 69.20
(32768.00, 1.00) -> 66.87
(32768.00, 4.00) -> 66.04
(32768.00, 16.02) -> 63.91
(32768.00, 64.07) -> 59.74
(32768.00, 256.28) -> 59.26
(32768.00, 1025.10) -> 57.10
(32768.00, 4100.41) -> 55.67
Best pair = (32.0000,0.0156)
