(0.25, 0.06) -> 69.05
(0.25, 0.51) -> 70.05
(0.25, 4.10) -> 68.57
(0.25, 32.78) -> 64.88
(0.25, 262.23) -> 60.26
(0.25, 2097.86) -> 57.25
(2.00, 0.06) -> 73.85
(2.00, 0.51) -> 70.89
(2.00, 4.10) -> 68.80
(2.00, 32.78) -> 66.54
(2.00, 262.23) -> 62.12
(2.00, 2097.86) -> 57.58
(16.00, 0.06) -> 73.25
(16.00, 0.51) -> 69.56
(16.00, 4.10) -> 67.74
(16.00, 32.78) -> 65.09
(16.00, 262.23) -> 60.65
(16.00, 2097.86) -> 57.33
(128.00, 0.06) -> 74.24
(128.00, 0.51) -> 68.88
(128.00, 4.10) -> 67.39
(128.00, 32.78) -> 63.61
(128.00, 262.23) -> 60.37
(128.00, 2097.86) -> 57.15
(1024.00, 0.06) -> 74.80
(1024.00, 0.51) -> 68.25
(1024.00, 4.10) -> 61.07
(1024.00, 32.78) -> 61.54
(1024.00, 262.23) -> 60.29
(1024.00, 2097.86) -> 57.13
Best pair = (1024.0000,0.0640)
